{
	"css": {
		"public/build/css/dist.min.css": [
			"public/lib/ionic/css/ionic.css",
			"public/css/**/*.css"
		]
	},
	"js": {
		"public/build/js/dist.min.js": [			
			"public/lib/ionic/js/ionic.bundle.js",
			"public/lib/angular-bindonce/bindonce.js",
			"public/js/**/*.js"
		]
	}
}
